{
  "articles": {
    "results": [
      {
        "id": "20837413",
        "uri": "743946742",
        "lang": "eng",
        "isDuplicate": false,
        "date": "2017-10-16",
        "time": "10:39:00",
        "dateTime": "2017-10-16T10:39:00Z",
        "sim": 0.6078431606292725,
        "url": "http:\/\/www.bbc.co.uk\/news\/uk-england-41635906",
        "title": "Red sun 'caused by Hurricane Ophelia'",
        "body": "An \"unusual\" reddish sky and red-looking sun have been reported across parts of England.\n\nThe phenomenon has been seen in the South West, West Midlands, North West and North East.\n\nBBC weather presenter Simon King said it was due to the remnants of Hurricane Ophelia dragging in tropical air and dust ...",
        "source": {
          "id": "264",
          "uri": "bbc.co.uk",
          "title": "BBC News"
        },
        "image": "https:\/\/ichef.bbci.co.uk\/news\/560\/cpsprodpb\/052B\/production\/_98332310_image1.jpg",
        "eventUri": "eng-3510971",
        "shares": {
          "facebook": 160739,
          "pinterest": 53,
          "linkedIn": 1672
        },
        "wgt": 1
      },
      {
        "id": "23251140",
        "uri": "750804411",
        "lang": "eng",
        "isDuplicate": false,
        "date": "2017-10-27",
        "time": "13:35:00",
        "dateTime": "2017-10-27T13:35:00Z",
        "sim": 0.5490196347236633,
        "url": "http:\/\/www.bbc.co.uk\/news\/world-europe-41780116",
        "title": "Catalans declare independence from Spain",
        "body": "The Catalan regional parliament has voted to declare independence from Spain, just as the Spanish government appears set to impose direct rule.\n\nThe move was was backed 70-10 in a ballot boycotted by opposition MPs.\n\nSpanish Prime Minister Mariano Rajoy earlier told senators direct rule was needed ...",
        "source": {
          "id": "264",
          "uri": "bbc.co.uk",
          "title": "BBC News"
        },
        "image": "https:\/\/ichef.bbci.co.uk\/news\/560\/cpsprodpb\/7A23\/production\/_97176213_breaking_news_bigger.png",
        "eventUri": "eng-3531614",
        "shares": {
          "facebook": 121542,
          "pinterest": 4,
          "linkedIn": 394
        },
        "wgt": 1
      },
      {
        "id": "22791043",
        "uri": "749504588",
        "lang": "eng",
        "isDuplicate": true,
        "date": "2017-10-25",
        "time": "14:46:00",
        "dateTime": "2017-10-25T14:46:00Z",
        "sim": 0.7843137383460999,
        "url": "http:\/\/www.bbc.co.uk\/news\/entertainment-arts-41753839",
        "title": "Rock and roll legend Fats Domino dies",
        "body": "Fats Domino, one of most influential rock and roll performers of the 1950s and 60s, has died aged 89.\n\nThe American rock and roll artist was best known for his songs Ain't That A Shame and Blueberry Hill.\n\nThe New Orleans singer sold more than 65 million records, outselling every 1950s rock and roll ...",
        "source": {
          "id": "264",
          "uri": "bbc.co.uk",
          "title": "BBC News"
        },
        "image": "https:\/\/ichef-1.bbci.co.uk\/news\/560\/cpsprodpb\/16B27\/production\/_98476929_fatsdominogetty.jpg",
        "eventUri": null,
        "shares": {
          "facebook": 82492,
          "linkedIn": 40
        },
        "wgt": 1
      },
      {
        "id": "21907816",
        "uri": "746940543",
        "lang": "eng",
        "isDuplicate": false,
        "date": "2017-10-20",
        "time": "22:02:00",
        "dateTime": "2017-10-20T22:02:00Z",
        "sim": 0.6196078658103943,
        "url": "http:\/\/www.bbc.co.uk\/news\/world-africa-41702662",
        "title": "Mugabe named 'goodwill ambassador' by WHO",
        "body": "The World Health Organization (WHO) has appointed President Robert Mugabe of Zimbabwe as a \"goodwill ambassador\" to help tackle non-communicable diseases.\n\nNew WHO head Dr Tedros Adhanom Ghebreyesus praised Zimbabwe for its commitment to public health.\n\nBut critics say that during Mr Mugabe's ...",
        "source": {
          "id": "264",
          "uri": "bbc.co.uk",
          "title": "BBC News"
        },
        "image": "https:\/\/ichef.bbci.co.uk\/news\/560\/cpsprodpb\/141C2\/production\/_98407328_mediaitem98407326.jpg",
        "eventUri": "eng-3523808",
        "shares": {
          "facebook": 77496,
          "linkedIn": 760
        },
        "wgt": 1
      },
      {
        "id": "21395235",
        "uri": "745487122",
        "lang": "eng",
        "isDuplicate": false,
        "date": "2017-10-18",
        "time": "16:32:00",
        "dateTime": "2017-10-18T16:32:00Z",
        "sim": 0.6901960968971252,
        "url": "http:\/\/www.bbc.co.uk\/news\/uk-41666280",
        "title": "Sanitary towel advert features red 'blood'",
        "body": "Bodyform has become the first brand in the UK to feature sanitary pads stained with red liquid, rather than blue, in its adverts.\n\nParent company Essity said it wanted to confront taboos surrounding periods.\n\nThe firm says research found 74% of people wanted to see more honest representation in ...",
        "source": {
          "id": "264",
          "uri": "bbc.co.uk",
          "title": "BBC News"
        },
        "image": "https:\/\/ichef-1.bbci.co.uk\/news\/560\/cpsprodpb\/F524\/production\/_98365726_bodyformedit1.jpg",
        "eventUri": "eng-3514551",
        "shares": {
          "facebook": 73032,
          "pinterest": 3,
          "linkedIn": 23
        },
        "wgt": 1
      },
      {
        "id": "20663989",
        "uri": "743449603",
        "lang": "eng",
        "isDuplicate": false,
        "date": "2017-10-15",
        "time": "10:17:00",
        "dateTime": "2017-10-15T10:17:00Z",
        "sim": 0.6784313917160034,
        "url": "http:\/\/www.bbc.co.uk\/news\/uk-41627442",
        "title": "Fresh warnings as hurricane heads to UK",
        "body": "The Met Office has issued Northern Ireland with an amber weather warning as Hurricane Ophelia remains on course to hit Ireland and the UK on Monday.\n\nThe warning, of \"potential danger to life\", came as Ireland called a national emergency meeting.\n\nOphelia, on its way from the Azores in the Atlantic ...",
        "source": {
          "id": "264",
          "uri": "bbc.co.uk",
          "title": "BBC News"
        },
        "image": "https:\/\/ichef.bbci.co.uk\/news\/560\/cpsprodpb\/17C2A\/production\/_98322379_mediaitem98318934.jpg",
        "eventUri": "eng-3502965",
        "shares": {
          "facebook": 56303,
          "pinterest": 3,
          "linkedIn": 269
        },
        "wgt": 1
      },
      {
        "id": "24037635",
        "uri": "753117009",
        "lang": "eng",
        "isDuplicate": false,
        "date": "2017-10-31",
        "time": "19:44:00",
        "dateTime": "2017-10-31T19:44:00Z",
        "sim": 0,
        "url": "http:\/\/www.bbc.co.uk\/news\/world-us-canada-41825577",
        "title": "Casualties reported after New York 'shooting'",
        "body": "Activist 'warned' about pursuing rape claim\n\nLabour supporter Bex Bailey says she was told that reporting the 2011 incident could \"damage\" her.\n\nTrump trashes 'low level' indicted aide Casualties reported after New York 'shooting'",
        "source": {
          "id": "264",
          "uri": "bbc.co.uk",
          "title": "BBC News"
        },
        "image": "https:\/\/ichef.bbci.co.uk\/news\/560\/cpsprodpb\/7A23\/production\/_97176213_breaking_news_bigger.png",
        "eventUri": null,
        "shares": {
          "facebook": 55630,
          "pinterest": 3,
          "linkedIn": 297
        },
        "wgt": 1
      },
      {
        "id": "22734872",
        "uri": "749352580",
        "lang": "eng",
        "isDuplicate": true,
        "date": "2017-10-25",
        "time": "10:24:00",
        "dateTime": "2017-10-25T10:24:00Z",
        "sim": 0.8470588326454163,
        "url": "http:\/\/www.bbc.co.uk\/news\/uk-scotland-glasgow-west-41748305",
        "title": "Woman is only passenger on holiday jet",
        "body": "A woman who paid just \u00a346 for a flight to Crete has spoken of her amazement at being the only passenger on board.\n\nKaron Grieve, from Dunlop in Ayrshire, described her Jet2 flight from Glasgow to the Greek island - which normally carries 189 passengers - as \"surreal\".\n\nShe was given the VIP ...",
        "source": {
          "id": "264",
          "uri": "bbc.co.uk",
          "title": "BBC News"
        },
        "image": "https:\/\/ichef.bbci.co.uk\/news\/560\/cpsprodpb\/17E0F\/production\/_98470879_empty2.jpg",
        "eventUri": null,
        "shares": {
          "facebook": 54754,
          "pinterest": 3,
          "linkedIn": 313
        },
        "wgt": 1
      },
      {
        "id": "21592301",
        "uri": "746047231",
        "lang": "eng",
        "isDuplicate": false,
        "date": "2017-10-19",
        "time": "13:43:00",
        "dateTime": "2017-10-19T13:43:00Z",
        "sim": 0.9333333373069763,
        "url": "http:\/\/www.bbc.co.uk\/news\/uk-scotland-edinburgh-east-fife-41683405",
        "title": "Badger found napping in cat bed",
        "body": "A sleepy badger was caught napping in a cat bed in a house in Linlithgow.\n\nThe badger entered the kitchen through a cat flap and filled up on cat food before going to sleep in the soft bed.\n\nThe Scottish SPCA was called to the house at Beecraigs Country Park on Wednesday and an officer was able to ...",
        "source": {
          "id": "264",
          "uri": "bbc.co.uk",
          "title": "BBC News"
        },
        "image": "https:\/\/ichef-1.bbci.co.uk\/news\/560\/cpsprodpb\/A18E\/production\/_98385314_badger1.jpg",
        "eventUri": "eng-3520076",
        "shares": {
          "facebook": 49644,
          "pinterest": 3,
          "linkedIn": 15
        },
        "wgt": 1
      },
      {
        "id": "22898010",
        "uri": "749807550",
        "lang": "eng",
        "isDuplicate": false,
        "date": "2017-10-26",
        "time": "01:28:00",
        "dateTime": "2017-10-26T01:28:00Z",
        "sim": 0.6039215922355652,
        "url": "http:\/\/www.bbc.co.uk\/news\/uk-41722224",
        "title": "'They're my mum and dad, not terrorists'",
        "body": "Since moving in with Pakistani Muslim foster parents, Rebecca Brown - who is white British - has had school friends ask if she lives with terrorists, because of their religion. She wants people to know they are just like any other family.\n\n\"I am a part of the family,\" Rebecca explains over a family ...",
        "source": {
          "id": "264",
          "uri": "bbc.co.uk",
          "title": "BBC News"
        },
        "image": "https:\/\/ichef.bbci.co.uk\/images\/ic\/560x315\/p05kyrv7.jpg",
        "eventUri": "eng-3535547",
        "shares": {
          "facebook": 48685,
          "linkedIn": 90
        },
        "wgt": 1
      },
      {
        "id": "20552836",
        "uri": "743106502",
        "lang": "eng",
        "isDuplicate": true,
        "date": "2017-10-14",
        "time": "13:27:00",
        "dateTime": "2017-10-14T13:27:00Z",
        "sim": 0.9254902005195618,
        "url": "http:\/\/www.bbc.co.uk\/news\/uk-scotland-highlands-islands-41621266",
        "title": "Hogwarts Express rescues stranded family",
        "body": "A family stranded in the Scottish Highlands have been rescued by the \"Hogwarts Express\" steam train\n\nJon and Helen Cluett and their four young children were staying at a remote bothy in the Highlands when their canoe was swept away by a swollen river.\n\nFacing a long walk back to their car across ...",
        "source": {
          "id": "264",
          "uri": "bbc.co.uk",
          "title": "BBC News"
        },
        "image": "https:\/\/ichef-1.bbci.co.uk\/news\/560\/cpsprodpb\/6BF9\/production\/_98314672_trainstuff.jpg",
        "eventUri": null,
        "shares": {
          "facebook": 45219,
          "pinterest": 10,
          "linkedIn": 62
        },
        "wgt": 1
      },
      {
        "id": "23452151",
        "uri": "751402784",
        "lang": "eng",
        "isDuplicate": false,
        "date": "2017-10-28",
        "time": "16:28:00",
        "dateTime": "2017-10-28T16:28:00Z",
        "sim": 0.6352941393852234,
        "url": "http:\/\/www.bbc.co.uk\/sport\/football\/41788830",
        "title": "England fight back to win U17 World Cup",
        "body": "England produced a sensational performance to come from 2-0 down to thrash Spain 5-2 and win the Under-17 World Cup in India.\n\nSteve Cooper's side were unlucky to fall behind to a double from Barcelona forward Sergio Gomez but Rhian Brewster's eighth of the tournament gave them hope just before ...",
        "source": {
          "id": "264",
          "uri": "bbc.co.uk",
          "title": "BBC News"
        },
        "image": "http:\/\/ichef.bbci.co.uk\/onesport\/cps\/624\/cpsprodpb\/13590\/production\/_97584297_breaking_news.png",
        "eventUri": "eng-3542887",
        "shares": {
          "facebook": 40870,
          "linkedIn": 44
        },
        "wgt": 1
      },
      {
        "id": "22118805",
        "uri": "747597371",
        "lang": "eng",
        "isDuplicate": false,
        "date": "2017-10-22",
        "time": "12:15:00",
        "dateTime": "2017-10-22T12:15:00Z",
        "sim": 0.6000000238418579,
        "url": "http:\/\/www.bbc.co.uk\/news\/world-africa-41713919",
        "title": "WHO cancels Mugabe ambassador role",
        "body": "The World Health Organization has revoked the appointment of Zimbabwe's Robert Mugabe as a goodwill ambassador following widespread outcry.\n\n\"I have listened carefully to all who have expressed their concerns,\" WHO head Tedros Adhanom Ghebreyesus said in a statement.\n\nHe had previously praised ...",
        "source": {
          "id": "264",
          "uri": "bbc.co.uk",
          "title": "BBC News"
        },
        "image": "https:\/\/ichef.bbci.co.uk\/news\/560\/cpsprodpb\/7A23\/production\/_97176213_breaking_news_bigger.png",
        "eventUri": "eng-3523808",
        "shares": {
          "facebook": 37803,
          "pinterest": 5,
          "linkedIn": 331
        },
        "wgt": 1
      },
      {
        "id": "25592757",
        "uri": "757628240",
        "lang": "eng",
        "isDuplicate": false,
        "date": "2017-11-08",
        "time": "15:44:00",
        "dateTime": "2017-11-08T15:44:00Z",
        "sim": 0.4980392158031464,
        "url": "http:\/\/www.bbc.co.uk\/news\/uk-41920229",
        "title": "Celebrity chef Carluccio dies aged 80",
        "body": "Under pressure Patel arrives back in UK\n\nPriti Patel is summoned back from Africa by No 10 amid controversy over her Israeli meetings.\n\nNo 'natural justice' for Sargeant Trump in China amid N Korea tensions",
        "source": {
          "id": "264",
          "uri": "bbc.co.uk",
          "title": "BBC News"
        },
        "image": "https:\/\/ichef-1.bbci.co.uk\/news\/560\/cpsprodpb\/7A23\/production\/_97176213_breaking_news_bigger.png",
        "eventUri": "eng-3565821",
        "shares": {
          "facebook": 35854,
          "pinterest": 5,
          "linkedIn": 414
        },
        "wgt": 1
      },
      {
        "id": "21766449",
        "uri": "746553096",
        "lang": "eng",
        "isDuplicate": false,
        "date": "2017-10-20",
        "time": "09:03:00",
        "dateTime": "2017-10-20T09:03:00Z",
        "sim": 0.886274516582489,
        "url": "http:\/\/www.bbc.co.uk\/news\/entertainment-arts-41692167",
        "title": "Mary Berry reunites with Mel and Sue",
        "body": "Former Bake Off stars Mary Berry, Mel Giedroyc and Sue Perkins are reuniting on screen for a BBC Christmas special.\n\nThe trio were last seen together on The Great British Bake Off last year, but refused to join Paul Hollywood when the show moved to Channel 4.\n\nMary, Mel and Sue's Surprise Party will ...",
        "source": {
          "id": "264",
          "uri": "bbc.co.uk",
          "title": "BBC News"
        },
        "image": "https:\/\/ichef-1.bbci.co.uk\/news\/560\/cpsprodpb\/12213\/production\/_98395247_marymelsue.jpg",
        "eventUri": "eng-3522097",
        "shares": {
          "facebook": 35257,
          "linkedIn": 5
        },
        "wgt": 1
      },
      {
        "id": "21827227",
        "uri": "746716175",
        "lang": "eng",
        "isDuplicate": false,
        "date": "2017-10-20",
        "time": "14:12:00",
        "dateTime": "2017-10-20T14:12:00Z",
        "sim": 0.6666666865348816,
        "url": "http:\/\/www.bbc.co.uk\/news\/uk-politics-41695667",
        "title": "Anger over Trump's UK crime tweet",
        "body": "The US President, Donald Trump, has sparked an angry backlash in the UK with a tweet linking a rise in the crime rate to \"radical Islamic terror\".\n\nHe said: \"Just out report: 'United Kingdom crime rises 13% annually amid spread of Radical Islamic terror.' Not good, we must keep America safe!\"\n\nThe ...",
        "source": {
          "id": "264",
          "uri": "bbc.co.uk",
          "title": "BBC News"
        },
        "image": "https:\/\/ichef-1.bbci.co.uk\/news\/560\/cpsprodpb\/07D0\/production\/_98400020_trump.png",
        "eventUri": "eng-3522656",
        "shares": {
          "facebook": 34628,
          "pinterest": 14,
          "linkedIn": 139
        },
        "wgt": 1
      },
      {
        "id": "26121184",
        "uri": "759103881",
        "lang": "eng",
        "isDuplicate": false,
        "date": "2017-11-10",
        "time": "22:41:00",
        "dateTime": "2017-11-10T22:41:00Z",
        "sim": 0.7686274647712708,
        "url": "http:\/\/www.bbc.co.uk\/news\/world-us-canada-41950775",
        "title": "Suspect's farts end police interview",
        "body": "A man's police interrogation in Kansas, Missouri was ended prematurely after he began answering questions by farting, according to local reports.\n\nSean Sykes Jnr is facing federal gun and drug charges after being pulled over twice by police in Kansas City.\n\nHe was initially released in September, ...",
        "source": {
          "id": "264",
          "uri": "bbc.co.uk",
          "title": "BBC News"
        },
        "image": "https:\/\/ichef.bbci.co.uk\/news\/560\/cpsprodpb\/35C0\/production\/_98706731_jacksoncounty.jpg",
        "eventUri": "eng-3575591",
        "shares": {
          "facebook": 30878,
          "linkedIn": 5
        },
        "wgt": 1
      },
      {
        "id": "25688325",
        "uri": "757897342",
        "lang": "eng",
        "isDuplicate": false,
        "date": "2017-11-09",
        "time": "01:43:00",
        "dateTime": "2017-11-09T01:43:00Z",
        "sim": 0.658823549747467,
        "url": "http:\/\/www.bbc.co.uk\/news\/world-australia-41923525",
        "title": "Australia jockey suspended for horse punch",
        "body": "A jockey has been suspended for punching his horse before a race in South Australia.\n\nVideo of the incident shows Dylan Caboche, 22, mounted on the horse, She's Reneldasgirl, and struggling to guide it to the starting gates.\n\nHe then dismounts and hits the horse in the ribs.\n\nRacing authorities ...",
        "source": {
          "id": "264",
          "uri": "bbc.co.uk",
          "title": "BBC News"
        },
        "image": "https:\/\/ichef-1.bbci.co.uk\/news\/560\/cpsprodpb\/139E5\/production\/_98675308_horseinsidepic.png",
        "eventUri": "eng-3568666",
        "shares": {
          "facebook": 30800,
          "pinterest": 5,
          "linkedIn": 4
        },
        "wgt": 1
      },
      {
        "id": "22607599",
        "uri": "748976207",
        "lang": "eng",
        "isDuplicate": false,
        "date": "2017-10-24",
        "time": "19:05:00",
        "dateTime": "2017-10-24T19:05:00Z",
        "sim": 0.6549019813537598,
        "url": "http:\/\/www.bbc.co.uk\/news\/world-middle-east-41742785",
        "title": "Einstein theory of happiness sold for $1.5m",
        "body": "Advice on two notes written by Albert Einstein describing his theory for happy living has sold at an auction house in Jerusalem for $1.56m (\u00a31.19m).\n\nThe Nobel Prize-winning German-born physicist gave the notes to a courier in Tokyo in 1922 instead of a tip.\n\nHe told the messenger that if he was ...",
        "source": {
          "id": "264",
          "uri": "bbc.co.uk",
          "title": "BBC News"
        },
        "image": "https:\/\/ichef-1.bbci.co.uk\/news\/560\/cpsprodpb\/9AC0\/production\/_98461693_mediaitem98461692.jpg",
        "eventUri": "eng-3532370",
        "shares": {
          "facebook": 29954,
          "pinterest": 8,
          "linkedIn": 451
        },
        "wgt": 1
      },
      {
        "id": "23609957",
        "uri": "751895059",
        "lang": "eng",
        "isDuplicate": false,
        "date": "2017-10-29",
        "time": "20:49:00",
        "dateTime": "2017-10-29T20:49:00Z",
        "sim": 0.6745098233222961,
        "url": "http:\/\/www.bbc.co.uk\/sport\/formula1\/41797604",
        "title": "Lewis Hamilton wins fourth world title at Mexican Grand Prix",
        "body": "Lewis Hamilton clinched his fourth world title at the Mexican Grand Prix despite finishing only ninth after a clash with rival Sebastian Vettel.\n\nHamilton's fourth world title makes him unquestionably the most successful British Formula 1 driver in history, moving him one championship clear of Sir ...",
        "source": {
          "id": "264",
          "uri": "bbc.co.uk",
          "title": "BBC News"
        },
        "image": "http:\/\/ichef.bbci.co.uk\/onesport\/cps\/624\/cpsprodpb\/1632\/production\/_98528650_hamilton_rex1.jpg",
        "eventUri": "eng-3541454",
        "shares": {
          "facebook": 27983,
          "pinterest": 5,
          "linkedIn": 102
        },
        "wgt": 1
      }
    ],
    "totalResults": 8294,
    "page": 1,
    "count": 20,
    "pages": 415
  }
}