{
  "response": {
    "status": "ok",
    "userTier": "developer",
    "total": 1996838,
    "startIndex": 1,
    "pageSize": 6,
    "currentPage": 1,
    "pages": 332807,
    "orderBy": "newest",
    "results": [
      {
        "id": "cities/live/2017/nov/27/guardian-cities-live-sao-paulo",
        "type": "liveblog",
        "sectionId": "cities",
        "sectionName": "Cities",
        "webPublicationDate": "2017-11-27T19:40:00Z",
        "webTitle": "Guardian Cities: Live from São Paulo's occupations",
        "webUrl": "https://www.theguardian.com/cities/live/2017/nov/27/guardian-cities-live-sao-paulo",
        "apiUrl": "https://content.guardianapis.com/cities/live/2017/nov/27/guardian-cities-live-sao-paulo",
        "isHosted": false
      },
      {
        "id": "media/2017/nov/27/society-faces-tsunami-of-harms-from-lack-of-online-regulation",
        "type": "article",
        "sectionId": "media",
        "sectionName": "Media",
        "webPublicationDate": "2017-11-27T19:37:24Z",
        "webTitle": "Society faces 'tsunami of harms' from lack of online regulation",
        "webUrl": "https://www.theguardian.com/media/2017/nov/27/society-faces-tsunami-of-harms-from-lack-of-online-regulation",
        "apiUrl": "https://content.guardianapis.com/media/2017/nov/27/society-faces-tsunami-of-harms-from-lack-of-online-regulation",
        "isHosted": false
      },
      {
        "id": "uk-news/live/2017/nov/27/prince-harry-and-meghan-markle-engagement-live-updates",
        "type": "liveblog",
        "sectionId": "uk-news",
        "sectionName": "UK news",
        "webPublicationDate": "2017-11-27T19:32:05Z",
        "webTitle": "Meghan Markle and Prince Harry give first television interview – live",
        "webUrl": "https://www.theguardian.com/uk-news/live/2017/nov/27/prince-harry-and-meghan-markle-engagement-live-updates",
        "apiUrl": "https://content.guardianapis.com/uk-news/live/2017/nov/27/prince-harry-and-meghan-markle-engagement-live-updates",
        "isHosted": false
      },
      {
        "id": "sport/2017/nov/27/anthony-joshua-sports-personality-of-the-year-2017-nominees",
        "type": "article",
        "sectionId": "sport",
        "sectionName": "Sport",
        "webPublicationDate": "2017-11-27T19:31:00Z",
        "webTitle": "Anthony Joshua leads way as Sports Personality of the Year nominees revealed",
        "webUrl": "https://www.theguardian.com/sport/2017/nov/27/anthony-joshua-sports-personality-of-the-year-2017-nominees",
        "apiUrl": "https://content.guardianapis.com/sport/2017/nov/27/anthony-joshua-sports-personality-of-the-year-2017-nominees",
        "isHosted": false,
        "pillarId": "pillar/sport",
        "pillarName": "Sport"
      },
      {
        "id": "politics/2017/nov/27/needy-defence-secretarys-blushes-saved-by-royal-engagement",
        "type": "article",
        "sectionId": "politics",
        "sectionName": "Politics",
        "webPublicationDate": "2017-11-27T19:26:26Z",
        "webTitle": "Needy defence secretary's blushes saved by royal engagement",
        "webUrl": "https://www.theguardian.com/politics/2017/nov/27/needy-defence-secretarys-blushes-saved-by-royal-engagement",
        "apiUrl": "https://content.guardianapis.com/politics/2017/nov/27/needy-defence-secretarys-blushes-saved-by-royal-engagement",
        "isHosted": false
      },
      {
        "id": "society/2017/nov/27/benefit-freeze-to-stay-working-people-costing-typical-family-300-a-year",
        "type": "article",
        "sectionId": "society",
        "sectionName": "Society",
        "webPublicationDate": "2017-11-27T19:24:08Z",
        "webTitle": "Benefit freeze to stay for working people costing typical family £300 a year",
        "webUrl": "https://www.theguardian.com/society/2017/nov/27/benefit-freeze-to-stay-working-people-costing-typical-family-300-a-year",
        "apiUrl": "https://content.guardianapis.com/society/2017/nov/27/benefit-freeze-to-stay-working-people-costing-typical-family-300-a-year",
        "isHosted": false
      }
    ]
  }
}