{
  "articles": {
    "results": [
      {
        "id": "27070942",
        "uri": "761828204",
        "lang": "eng",
        "isDuplicate": false,
        "date": "2017-11-15",
        "time": "23:49:00",
        "dateTime": "2017-11-15T23:49:00Z",
        "sim": 0.7607843279838562,
        "url": "http:\/\/www.skysports.com\/football\/news\/11668\/11128259\/willian-wants-ruben-loftus-cheek-to-return-to-chelsea",
        "title": "Willian wants Ruben Loftus-Cheek to return to Chelsea",
        "body": "Willian wants Ruben Loftus-Cheek to return to Chelsea By Rory O'Callaghan\n\nLast Updated: 15\/11\/17 11:39pm\n\nWillian believes Ruben Loftus-Cheek has a bright future at Chelsea and has urged the England international to consider an immediate return to Stamford Bridge.\n\nLoftus-Cheek has impressed while ...",
        "source": {
          "id": "709",
          "uri": "skysports.com",
          "title": "Sky Sports"
        },
        "image": "http:\/\/e0.365dm.com\/17\/11\/150x150\/skysports-ruben-lofts-cheek-chelsea-football_4156985.jpg",
        "eventUri": "eng-3586733",
        "shares": {},
        "wgt": 1
      },
      {
        "id": "27070656",
        "uri": "761827480",
        "lang": "eng",
        "isDuplicate": false,
        "date": "2017-11-15",
        "time": "23:48:00",
        "dateTime": "2017-11-15T23:48:00Z",
        "sim": 0.5450980663299561,
        "url": "http:\/\/www.skysports.com\/football\/news\/11675\/11128255\/tottenhams-ben-davies-hopes-england-trio-will-return-fresh-for-arsenal-visit",
        "title": "Tottenham's Ben Davies hopes England trio will return fresh for Arsenal visit",
        "body": "Tottenham's Ben Davies hopes England trio will return fresh for Arsenal visit\n\nLast Updated: 15\/11\/17 11:41pm\n\nBen Davies hopes Harry Kane, Dele Alli and Harry Winks will give Tottenham the edge in this weekend's north London derby against Arsenal.\n\nThe England trio sat out friendlies against ...",
        "source": {
          "id": "709",
          "uri": "skysports.com",
          "title": "Sky Sports"
        },
        "image": "http:\/\/e1.365dm.com\/17\/10\/150x150\/tottenham-real-madrid-harry-winks-harry-kane_4130964.jpg",
        "eventUri": "eng-3585022",
        "shares": {},
        "wgt": 1
      },
      {
        "id": "27069299",
        "uri": "761823813",
        "lang": "eng",
        "isDuplicate": false,
        "date": "2017-11-15",
        "time": "23:37:00",
        "dateTime": "2017-11-15T23:37:00Z",
        "sim": 0.6509804129600525,
        "url": "http:\/\/www.skysports.com\/football\/news\/11675\/11128227\/christian-eriksen-form-thrills-eric-dier-as-tottenham-prepare-for-arsenal-derby",
        "title": "Christian Eriksen form thrills Eric Dier as Tottenham prepare for Arsenal derby",
        "body": "Christian Eriksen form thrills Eric Dier as Tottenham prepare for Arsenal derby By Sky Sports News\n\nLast Updated: 15\/11\/17 11:31pm\n\nChristian Eriksen is in the form of his life, says team-mate Eric Dier, as Tottenham prepare for Saturday's North London Derby with Arsenal, live on Sky Sports Premier ...",
        "source": {
          "id": "709",
          "uri": "skysports.com",
          "title": "Sky Sports"
        },
        "image": "http:\/\/e0.365dm.com\/17\/10\/150x150\/skysports-christian-eriksen-tottenham-spurs_4129406.jpg",
        "eventUri": "eng-3586364",
        "shares": {},
        "wgt": 1
      },
      {
        "id": "27067612",
        "uri": "761819005",
        "lang": "eng",
        "isDuplicate": false,
        "date": "2017-11-15",
        "time": "23:24:00",
        "dateTime": "2017-11-15T23:24:00Z",
        "sim": 0,
        "url": "http:\/\/www.skysports.com\/football\/news\/11095\/11128125\/listen-the-debate-podcast-craig-bellamy-and-tim-sherwood",
        "title": "LISTEN: The Debate podcast - Craig Bellamy and Tim Sherwood",
        "body": "LISTEN: The Debate podcast - Craig Bellamy and Tim Sherwood\n\nLast Updated: 15\/11\/17 11:21pm\n\nCraig Bellamy and Tim Sherwood join Geoff Shreeves to discuss all the big talking points on the latest episode of The Debate.\n\nTopics under discussion included Sherwood's verdict on Gareth Southgate's ...",
        "source": {
          "id": "709",
          "uri": "skysports.com",
          "title": "Sky Sports"
        },
        "image": "http:\/\/e2.365dm.com\/17\/08\/150x150\/skysports-the-debate-sky-sports_4067873.jpg",
        "eventUri": null,
        "shares": {},
        "wgt": 1
      },
      {
        "id": "27067596",
        "uri": "761819003",
        "lang": "eng",
        "isDuplicate": false,
        "date": "2017-11-15",
        "time": "23:24:00",
        "dateTime": "2017-11-15T23:24:00Z",
        "sim": 0.6705882549285889,
        "url": "http:\/\/www.skysports.com\/football\/news\/11095\/11128262\/danny-lloyd-hits-hat-trick-as-peterborough-crush-tranmere-in-fa-cup",
        "title": "Danny Lloyd hits hat-trick as Peterborough crush Tranmere in FA Cup",
        "body": "Danny Lloyd hits hat-trick as Peterborough crush Tranmere in FA Cup Peterborough striker Danny Lloyd scored a hat-trick to knock 10-man Tranmere out of the FA Cup with a 5-0 win.\n\nLast Updated: 15\/11\/17 11:16pm\n\nPeterborough striker Danny Lloyd scored a hat-trick to knock 10-man Tranmere out of the ...",
        "source": {
          "id": "709",
          "uri": "skysports.com",
          "title": "Sky Sports"
        },
        "image": "http:\/\/e0.365dm.com\/17\/11\/150x150\/skysports-peterborough-united_4153198.jpg",
        "eventUri": "eng-3587679",
        "shares": {},
        "wgt": 1
      },
      {
        "id": "27067347",
        "uri": "761818052",
        "lang": "eng",
        "isDuplicate": false,
        "date": "2017-11-15",
        "time": "23:22:00",
        "dateTime": "2017-11-15T23:22:00Z",
        "sim": 0.5960784554481506,
        "url": "http:\/\/www.skysports.com\/football\/news\/11095\/11128225\/joe-gomez-is-liverpools-best-centre-back-says-tim-sherwood",
        "title": "Joe Gomez is Liverpool's best centre-back, says Tim Sherwood",
        "body": "Joe Gomez is Liverpool's best centre-back, says Tim Sherwood\n\nLast Updated: 15\/11\/17 11:11pm\n\nTim Sherwood thinks Joe Gomez is Liverpool's best centre-back but is worried he will be overlooked in that position by Jurgen Klopp.\n\nGomez defied his years with an outstanding full debut for England ...",
        "source": {
          "id": "709",
          "uri": "skysports.com",
          "title": "Sky Sports"
        },
        "image": "http:\/\/e2.365dm.com\/17\/11\/150x150\/skysports-gomez-liverpool_4156960.jpg",
        "eventUri": "eng-3585909",
        "shares": {},
        "wgt": 1
      },
      {
        "id": "27063058",
        "uri": "761807004",
        "lang": "eng",
        "isDuplicate": false,
        "date": "2017-11-15",
        "time": "22:53:00",
        "dateTime": "2017-11-15T22:53:00Z",
        "sim": 0.729411780834198,
        "url": "http:\/\/www.skysports.com\/rugby-union\/news\/12321\/11128201\/courtney-lawes-says-englands-owen-farrell-is-an-exceptional-player",
        "title": "Courtney Lawes says England's Owen Farrell is an 'exceptional player'",
        "body": "Courtney Lawes says England's Owen Farrell is an 'exceptional player' By PA Sport\n\nLast Updated: 15\/11\/17 10:42pm\n\nOwen Farrell is set to be recalled for Saturday's Cook Cup clash against Australia buoyed by recognition from Courtney Lawes over his influence on England.\n\nFarrell was rested for the ...",
        "source": {
          "id": "709",
          "uri": "skysports.com",
          "title": "Sky Sports"
        },
        "image": "http:\/\/e1.365dm.com\/17\/11\/150x150\/skysports-rugby-owen-farrell-england_4151620.jpg",
        "eventUri": "eng-3588127",
        "shares": {},
        "wgt": 1
      },
      {
        "id": "27062602",
        "uri": "761806056",
        "lang": "eng",
        "isDuplicate": false,
        "date": "2017-11-15",
        "time": "22:50:00",
        "dateTime": "2017-11-15T22:50:00Z",
        "sim": 0,
        "url": "http:\/\/www.skysports.com\/tennis\/news\/33504\/11127959\/dominic-thiem-holds-firm-to-secure-win-over-pablo-carreno-busta-at-atp-finals",
        "title": "Dominic Thiem holds firm to secure win over Pablo Carreno Busta at ATP Finals",
        "body": "Dominic Thiem holds firm to secure win over Pablo Carreno Busta at ATP Finals Thiem will face Goffin in final round-robin encounter with both players aiming to book semi-final spot By Mathieu Wood\n\nLast Updated: 15\/11\/17 10:42pm\n\nDominic Thiem battled to a compelling three-set victory over Pablo ...",
        "source": {
          "id": "709",
          "uri": "skysports.com",
          "title": "Sky Sports"
        },
        "image": "http:\/\/e0.365dm.com\/17\/11\/150x150\/skysports-thiem-tennis-atpfinals_4156944.jpg",
        "eventUri": null,
        "shares": {},
        "wgt": 1
      },
      {
        "id": "27055799",
        "uri": "761784804",
        "lang": "eng",
        "isDuplicate": false,
        "date": "2017-11-15",
        "time": "22:04:00",
        "dateTime": "2017-11-15T22:04:00Z",
        "sim": 0.7607843279838562,
        "url": "http:\/\/www.skysports.com\/football\/news\/11667\/11128171\/manchester-uniteds-marcos-rojo-returns-from-injury-to-play-for-u23s",
        "title": "Manchester United's Marcos Rojo returns from injury to play for U23s",
        "body": "Manchester United's Marcos Rojo returns from injury to play for U23s By Rory O'Callaghan\n\nLast Updated: 15\/11\/17 9:52pm\n\nManchester United defender Marcos Rojo has stepped up his recovery from a long-term knee injury by playing his first game for the club in almost seven months.\n\nRojo has been ...",
        "source": {
          "id": "709",
          "uri": "skysports.com",
          "title": "Sky Sports"
        },
        "image": "http:\/\/e2.365dm.com\/17\/10\/150x150\/skysports-marcos-rojo-manchester-united_4130686.jpg",
        "eventUri": "eng-3585754",
        "shares": {},
        "wgt": 1
      },
      {
        "id": "27047358",
        "uri": "761759281",
        "lang": "eng",
        "isDuplicate": false,
        "date": "2017-11-15",
        "time": "21:01:00",
        "dateTime": "2017-11-15T21:01:00Z",
        "sim": 0.6470588445663452,
        "url": "http:\/\/www.skysports.com\/live-scores\/cricket\/india-v-sri-lanka\/19817\/11127685\/preview",
        "title": "India vs Sri Lanka | Sky Sports Live Cricket",
        "body": "Angelo Mathews to bat at No 4 for Sri Lanka as they hunt a first Test victory in India\n\nAngelo Mathews returns to the Sri Lanka side for the first Test in Kolkata as the tourists hunt a maiden win in India.\n\n9-0 was the score across the board when India visited Sri Lanka in late summer, Virat ...",
        "source": {
          "id": "709",
          "uri": "skysports.com",
          "title": "Sky Sports"
        },
        "image": "http:\/\/e0.365dm.com\/17\/11\/16-9\/20\/skysports-angelo-mathews-sri-lanka-test-cricket_4156520.jpg?20171115134706",
        "eventUri": "eng-3585733",
        "shares": {},
        "wgt": 1
      },
      {
        "id": "27047301",
        "uri": "761759113",
        "lang": "eng",
        "isDuplicate": false,
        "date": "2017-11-15",
        "time": "21:00:00",
        "dateTime": "2017-11-15T21:00:00Z",
        "sim": 0.8313725590705872,
        "url": "http:\/\/www.skysports.com\/football\/news\/11668\/11128100\/ji-so-yun-helps-chelsea-progress-to-champions-league-quarter-finals",
        "title": "Ji So-yun helps Chelsea progress to Champions League quarter-finals",
        "body": "Ji So-yun helps Chelsea progress to Champions League quarter-finals\n\nLast Updated: 15\/11\/17 8:47pm\n\nChelsea are through to the Women's Champions League quarter-finals for the first time after they beat Rosengard 1-0 in Malmo.\n\nThe away goal was netted in the 53rd minute by Ji So-yun to seal a 4-0 ...",
        "source": {
          "id": "709",
          "uri": "skysports.com",
          "title": "Sky Sports"
        },
        "image": "http:\/\/e2.365dm.com\/17\/11\/150x150\/skysports-ji-so-yun-chelsea_4156865.jpg",
        "eventUri": "eng-3588055",
        "shares": {},
        "wgt": 1
      },
      {
        "id": "27040369",
        "uri": "761740026",
        "lang": "eng",
        "isDuplicate": false,
        "date": "2017-11-15",
        "time": "20:16:00",
        "dateTime": "2017-11-15T20:16:00Z",
        "sim": 0.8392156958580017,
        "url": "http:\/\/www.skysports.com\/tennis\/news\/12110\/11128032\/jamie-murray-and-bruno-soares-cruise-to-victory-at-atp-finals",
        "title": "Jamie Murray and Bruno Soares cruise to victory at ATP Finals",
        "body": "Jamie Murray and Bruno Soares cruise to victory at ATP Finals By PA Sport\n\nLast Updated: 15\/11\/17 8:07pm\n\nJamie Murray and Bruno Soares pulled progress at the ATP Finals back into their own hands after they cruised to victory over Marcel Granollers and Ivan Dodig.\n\nAfter losing to Bob and Mike Bryan ...",
        "source": {
          "id": "709",
          "uri": "skysports.com",
          "title": "Sky Sports"
        },
        "image": "http:\/\/e1.365dm.com\/17\/11\/150x150\/skysports-tennis-jamie-murray-bruno-soares-atp-fnals_4156813.jpg",
        "eventUri": "eng-3588009",
        "shares": {},
        "wgt": 1
      },
      {
        "id": "27033717",
        "uri": "761722073",
        "lang": "eng",
        "isDuplicate": false,
        "date": "2017-11-15",
        "time": "19:36:00",
        "dateTime": "2017-11-15T19:36:00Z",
        "sim": 0.6352941393852234,
        "url": "http:\/\/www.skysports.com\/football\/news\/11661\/11127753\/arsenal-v-tottenham-piers-morgan-v-lord-sugar-go-head-to-head-ahead-of-north-london-derby",
        "title": "Arsenal v Tottenham: Piers Morgan v Lord Sugar go head to head ahead of north London derby",
        "body": "Arsenal v Tottenham: Piers Morgan v Lord Sugar go head to head ahead of north London derby\n\nLast Updated: 15\/11\/17 7:05pm\n\nArsenal v Tottenham, Piers Morgan v Lord Sugar: two hotly-anticipated battles in front of the Sky Sports cameras.\n\nThe rival fans went head to head for a pre-match special ahead ...",
        "source": {
          "id": "709",
          "uri": "skysports.com",
          "title": "Sky Sports"
        },
        "image": "http:\/\/e0.365dm.com\/17\/11\/150x150\/skysports-piers-morgan-alan-sugar-geoff-shreeves_4156201.jpg",
        "eventUri": "eng-3585022",
        "shares": {},
        "wgt": 1
      },
      {
        "id": "27029789",
        "uri": "761711713",
        "lang": "eng",
        "isDuplicate": false,
        "date": "2017-11-15",
        "time": "19:14:00",
        "dateTime": "2017-11-15T19:14:00Z",
        "sim": 0.4745098054409027,
        "url": "http:\/\/www.skysports.com\/football\/news\/11095\/11126320\/carlo-ancelotti-and-antonio-conte-head-next-italy-manager-betting",
        "title": "Carlo Ancelotti and Antonio Conte head next Italy manager betting",
        "body": "Carlo Ancelotti and Antonio Conte head next Italy manager betting\n\nLast Updated: 15\/11\/17 6:57pm\n\nWe look at the top contenders to become the next Italy manager following Gian Piero Ventura's sacking.\n\nVentura failed to lead Italy to the World Cup for the first time in six decades following their ...",
        "source": {
          "id": "709",
          "uri": "skysports.com",
          "title": "Sky Sports"
        },
        "image": "http:\/\/e0.365dm.com\/17\/09\/150x150\/skysports-carlo-ancelotti-bayern_4113339.jpg",
        "eventUri": "eng-3583280",
        "shares": {},
        "wgt": 1
      },
      {
        "id": "27025766",
        "uri": "761701108",
        "lang": "eng",
        "isDuplicate": false,
        "date": "2017-11-15",
        "time": "18:51:00",
        "dateTime": "2017-11-15T18:51:00Z",
        "sim": 0,
        "url": "http:\/\/www.skysports.com\/boxing\/news\/12040\/11127918\/toe-2-toe-podcast-anthony-joshua-kell-brook-katie-taylor-plus-joe-gallagher-as-a-guest",
        "title": "Toe 2 Toe podcast: Anthony Joshua, Kell Brook, Katie Taylor plus Joe Gallagher as a guest",
        "body": "Toe 2 Toe podcast: Anthony Joshua, Kell Brook, Katie Taylor plus Joe Gallagher as a guest\n\nLast Updated: 15\/11\/17 5:42pm\n\nWelcome to the Ringside Toe 2 Toe podcast, an online offering from Sky Sports bringing you the latest news and views from the world of boxing.\n\nToe 2 Toe is available every week ...",
        "source": {
          "id": "709",
          "uri": "skysports.com",
          "title": "Sky Sports"
        },
        "image": "http:\/\/e2.365dm.com\/16\/10\/150x150\/sky-sports-toe-2-toe-podcast_3817442.jpg",
        "eventUri": null,
        "shares": {},
        "wgt": 1
      },
      {
        "id": "27022741",
        "uri": "761690774",
        "lang": "eng",
        "isDuplicate": false,
        "date": "2017-11-15",
        "time": "18:35:00",
        "dateTime": "2017-11-15T18:35:00Z",
        "sim": 0.8117647171020508,
        "url": "http:\/\/www.skysports.com\/football\/news\/11095\/11127947\/rangers-defender-fabio-cardoso-closing-in-on-return-after-injury",
        "title": "Rangers defender Fabio Cardoso closing in on return after injury",
        "body": "Rangers defender Fabio Cardoso closing in on return after injury\n\nLast Updated: 15\/11\/17 6:23pm\n\nFabio Cardoso is nearing a return from injury after being included in the Rangers development squad travelling to Berwick on Wednesday.\n\nThe defender has been absent since breaking his nose in the ...",
        "source": {
          "id": "709",
          "uri": "skysports.com",
          "title": "Sky Sports"
        },
        "image": "http:\/\/e1.365dm.com\/17\/11\/150x150\/skysports-fabio-cardoso-rangers_4156737.jpg",
        "eventUri": "eng-3588041",
        "shares": {},
        "wgt": 1
      },
      {
        "id": "27015770",
        "uri": "761671224",
        "lang": "eng",
        "isDuplicate": true,
        "date": "2017-11-15",
        "time": "17:56:00",
        "dateTime": "2017-11-15T17:56:00Z",
        "sim": 0,
        "url": "http:\/\/www.skysports.com\/football\/news\/12022\/11127927\/italy-sack-head-coach-gian-piero-ventura",
        "title": "Italy sack head coach Gian Piero Ventura",
        "body": "Italy sack head coach Gian Piero Ventura\n\nLast Updated: 15\/11\/17 5:42pm\n\nItaly have sacked head coach Gian Piero Ventura after failing to qualify for the 2018 World Cup.\n\nItaly lost 1-0 on aggregate to Sweden in their World Cup play-off to miss out on the tournament for the first time since ...",
        "source": {
          "id": "709",
          "uri": "skysports.com",
          "title": "Sky Sports"
        },
        "image": "http:\/\/e0.365dm.com\/17\/11\/150x150\/skysports-gian-piero-ventura-ventura-italy_4155071.jpg",
        "eventUri": null,
        "shares": {},
        "wgt": 1
      },
      {
        "id": "27014690",
        "uri": "761668519",
        "lang": "eng",
        "isDuplicate": false,
        "date": "2017-11-15",
        "time": "17:51:00",
        "dateTime": "2017-11-15T17:51:00Z",
        "sim": 0.772549033164978,
        "url": "http:\/\/www.skysports.com\/tennis\/news\/12110\/11127896\/jamie-delgado-expects-andy-murray-to-play-brisbane-international-after-hip-injury",
        "title": "Jamie Delgado expects Andy Murray to play Brisbane International after hip injury",
        "body": "Jamie Delgado expects Andy Murray to play Brisbane International after hip injury \"We believe that he'll get back to his best - 100 per cent\" By Raz Mirza at The O2\n\nLast Updated: 15\/11\/17 5:49pm\n\nAndy Murray's coach Jamie Delgado says his expects Andy Murray to play at the Brisbane International, ...",
        "source": {
          "id": "709",
          "uri": "skysports.com",
          "title": "Sky Sports"
        },
        "image": "http:\/\/e0.365dm.com\/17\/11\/150x150\/skysports-tennis-andy-murray-jamie-delgado_4156692.jpg",
        "eventUri": "eng-3585964",
        "shares": {},
        "wgt": 1
      },
      {
        "id": "27013589",
        "uri": "761665507",
        "lang": "eng",
        "isDuplicate": false,
        "date": "2017-11-15",
        "time": "17:45:00",
        "dateTime": "2017-11-15T17:45:00Z",
        "sim": 0.5098039507865906,
        "url": "http:\/\/www.skysports.com\/football\/news\/12022\/11127927\/italy-sack-head-coach-gian-piero-ventrura",
        "title": "Italy sack head coach Gian Piero Ventrura",
        "body": "Italy sack head coach Gian Piero Ventrura\n\nLast Updated: 15\/11\/17 5:39pm\n\nItaly have sacked head coach Gian Piero Ventura after failing to qualify for the 2018 World Cup.\n\nItaly lost 1-0 on aggregate to Sweden in their World Cup play-off to miss out on the tournament for the first time since ...",
        "source": {
          "id": "709",
          "uri": "skysports.com",
          "title": "Sky Sports"
        },
        "image": "http:\/\/e0.365dm.com\/17\/11\/150x150\/skysports-gian-piero-ventura-ventura-italy_4155071.jpg",
        "eventUri": "eng-3583753",
        "shares": {},
        "wgt": 1
      },
      {
        "id": "27001744",
        "uri": "761635639",
        "lang": "eng",
        "isDuplicate": false,
        "date": "2017-11-15",
        "time": "16:49:00",
        "dateTime": "2017-11-15T16:49:00Z",
        "sim": 0.6313725709915161,
        "url": "http:\/\/www.skysports.com\/rugby-union\/news\/15175\/11126430\/australias-kurtley-beale-says-test-match-rugby-is-the-ultimate",
        "title": "Australia's Kurtley Beale says Test match rugby is the 'ultimate'",
        "body": "Australia's Kurtley Beale says Test match rugby is the 'ultimate' By Graeme Peacock\n\nLast Updated: 15\/11\/17 3:48pm\n\nAustralia's Kurtley Beale says Test match rugby is the \"ultimate\" and the reason he left Wasps was to return to Australia.\n\nThe pull of international rugby proved to be too strong for ...",
        "source": {
          "id": "709",
          "uri": "skysports.com",
          "title": "Sky Sports"
        },
        "image": "http:\/\/e0.365dm.com\/17\/08\/150x150\/skysports-kurtley-beale-australia_4078728.jpg",
        "eventUri": "eng-3583211",
        "shares": {},
        "wgt": 1
      }
    ],
    "totalResults": 3200,
    "page": 1,
    "count": 20,
    "pages": 160
  }
}